%YAML 1.1
%TAG !u! tag:unity3d.com,2011:
--- !u!54 &8944356959242724961
Rigidbody:
  m_ObjectHideFlags: 0
  m_CorrespondingSourceObject: {fileID: 0}
  m_PrefabInstance: {fileID: 0}
  m_PrefabAsset: {fileID: 0}
  m_GameObject: {fileID: 6257961749558151161}
  serializedVersion: 2
  m_Mass: 1
  m_Drag: 0
  m_AngularDrag: 0.05
  m_UseGravity: 0
  m_IsKinematic: 0
  m_Interpolate: 0
  m_Constraints: 0
  m_CollisionDetection: 0
--- !u!65 &7173531189407334097
BoxCollider:
  m_ObjectHideFlags: 0
  m_CorrespondingSourceObject: {fileID: 0}
  m_PrefabInstance: {fileID: 0}
  m_PrefabAsset: {fileID: 0}
  m_GameObject: {fileID: 6257961749558151161}
  m_Material: {fileID: 0}
  m_IsTrigger: 1
  m_Enabled: 1
  serializedVersion: 2
  m_Size: {x: 0.6907087, y: 0.2954241, z: 0.32987684}
  m_Center: {x: 0.0000013411045, y: 0.14771205, z: -0.000000007450581}
--- !u!114 &-4389393025462202326
MonoBehaviour:
  m_ObjectHideFlags: 0
  m_CorrespondingSourceObject: {fileID: 0}
  m_PrefabInstance: {fileID: 0}
  m_PrefabAsset: {fileID: 0}
  m_GameObject: {fileID: 6257961749558151161}
  m_Enabled: 1
  m_EditorHideFlags: 0
  m_Script: {fileID: 11500000, guid: 83caaa3027bf1b741841c401b6e70884, type: 3}
  m_Name: 
  m_EditorClassIdentifier: 
  sekerolusturmaobje: {fileID: 0}
  id: 2
  ButunObjelerimiAyirtma: []
  EnYakinObjeler: []
  Sira: 0
--- !u!1001 &6257961749558116697
PrefabInstance:
  m_ObjectHideFlags: 0
  serializedVersion: 2
  m_Modification:
    m_TransformParent: {fileID: 0}
    m_Modifications:
    - target: {fileID: 100000, guid: 7977e423937da9b48aac1866c67bb5be, type: 3}
      propertyPath: m_Name
      value: Watermelon Variant
      objectReference: {fileID: 0}
    - target: {fileID: 400000, guid: 7977e423937da9b48aac1866c67bb5be, type: 3}
      propertyPath: m_RootOrder
      value: 0
      objectReference: {fileID: 0}
    - target: {fileID: 400000, guid: 7977e423937da9b48aac1866c67bb5be, type: 3}
      propertyPath: m_LocalPosition.x
      value: -0
      objectReference: {fileID: 0}
    - target: {fileID: 400000, guid: 7977e423937da9b48aac1866c67bb5be, type: 3}
      propertyPath: m_LocalPosition.y
      value: 0
      objectReference: {fileID: 0}
    - target: {fileID: 400000, guid: 7977e423937da9b48aac1866c67bb5be, type: 3}
      propertyPath: m_LocalPosition.z
      value: 0
      objectReference: {fileID: 0}
    - target: {fileID: 400000, guid: 7977e423937da9b48aac1866c67bb5be, type: 3}
      propertyPath: m_LocalRotation.w
      value: 1
      objectReference: {fileID: 0}
    - target: {fileID: 400000, guid: 7977e423937da9b48aac1866c67bb5be, type: 3}
      propertyPath: m_LocalRotation.x
      value: 0
      objectReference: {fileID: 0}
    - target: {fileID: 400000, guid: 7977e423937da9b48aac1866c67bb5be, type: 3}
      propertyPath: m_LocalRotation.y
      value: -0
      objectReference: {fileID: 0}
    - target: {fileID: 400000, guid: 7977e423937da9b48aac1866c67bb5be, type: 3}
      propertyPath: m_LocalRotation.z
      value: -0
      objectReference: {fileID: 0}
    - target: {fileID: 400000, guid: 7977e423937da9b48aac1866c67bb5be, type: 3}
      propertyPath: m_LocalEulerAnglesHint.x
      value: 0
      objectReference: {fileID: 0}
    - target: {fileID: 400000, guid: 7977e423937da9b48aac1866c67bb5be, type: 3}
      propertyPath: m_LocalEulerAnglesHint.y
      value: 0
      objectReference: {fileID: 0}
    - target: {fileID: 400000, guid: 7977e423937da9b48aac1866c67bb5be, type: 3}
      propertyPath: m_LocalEulerAnglesHint.z
      value: 0
      objectReference: {fileID: 0}
    m_RemovedComponents: []
  m_SourcePrefab: {fileID: 100100000, guid: 7977e423937da9b48aac1866c67bb5be, type: 3}
--- !u!1 &6257961749558151161 stripped
GameObject:
  m_CorrespondingSourceObject: {fileID: 100000, guid: 7977e423937da9b48aac1866c67bb5be,
    type: 3}
  m_PrefabInstance: {fileID: 6257961749558116697}
  m_PrefabAsset: {fileID: 0}
