%YAML 1.1
%TAG !u! tag:unity3d.com,2011:
--- !u!1045 &1
EditorBuildSettings:
  m_ObjectHideFlags: 0
  serializedVersion: 2
  m_Scenes:
  - enabled: 1
    path: Assets/Scenes/Firstlvl.unity
    guid: 9fc0d4010bbf28b4594072e72b8655ab
  - enabled: 1
    path: Assets/Scenes/Secondlvl.unity
    guid: 05662b96d5b15ba49869c37769bdeee7
  - enabled: 1
    path: Assets/Scenes/Thirdlvl.unity
    guid: b5de3d7b050236248b955c84d59d2161
  m_configObjects: {}
